@startuml

participant Backend order 10
participant Studio order 20
participant Plugin order 30
participant PluginBE order 40

== Plugin Commands ==

Plugin->Studio: ready
Plugin->Studio: setBadge
Plugin->Studio: setMenu
Plugin->Studio: navigateTo
Plugin->Studio: pluginEvent
Plugin->Studio: getDataRequest   [see below]
Plugin->Studio: openShareDialog
Plugin->Studio: openCustomDialog(dialogConfig) -> Promise --> Not required now, that's for the 'delete thread' warning which we cancelled.
Plugin->Studio: notifyUsers(notificationDescriptor)

== Plugin GET Requests ==
Plugin->Studio: getDataRequest(getSlides) -> Promise({powtoonId, slides})
Plugin->Studio: getDataRequest(getPlayheadPosition) -> Promise({powtoonId, slideId, millisec})
Plugin->Studio: getDataRequest(getPowtoonAccessToken) -> Promise(token)
Plugin->Studio: getDataRequest(getPowtoonUsers) (mentions)
Plugin->Studio: getDataRequest(getUsersById[ids])

== Listen to UI/Model events ==
Studio->Plugin: slides[]
Studio->Plugin: slideTimeChanged
Studio->Plugin: selection
Studio->Plugin: timeline

@enduml