@startuml

participant Backend order 10
participant Studio order 20
participant Plugin order 30
participant PluginBE order 40

== Mentions ==
Plugin->Studio: getPowtoonUsers...

group Email Notifications
    Plugin->Studio: sendEmails([emailDesc1, emailDesc2, ...])
    Studio-->Backend: sendPluginEmails([emailDesc1, emailDesc2])
    Backend-->Backend: generate & sendEmails according to GDPR
end

@enduml